shift_add_multiplier.vcd
$date
	Fri Sep 05 14:10:24 2025
$end
$version
	Icarus Verilog
$end
$timescale
	1s
$end
$scope module tb_shift_add_multiplier $end
$var wire 16 ! result [15:0] $end
$var wire 1 " d_end $end
$var reg 8 # b [7:0] $end
$var reg 1 $ clk $end
$var reg 8 % q [7:0] $end
$var reg 1 & rst $end
$scope module uut $end
$var wire 8 ' b [7:0] $end
$var wire 1 $ clk $end
$var wire 8 ( q [7:0] $end
$var wire 1 & rst $end
$var wire 16 ) result [15:0] $end
$var wire 1 * q_ser_out $end
$var wire 8 + q_out [7:0] $end
$var wire 8 , f [7:0] $end
$var wire 4 - data_out [3:0] $end
$var wire 1 . c_ripple $end
$var wire 1 / c_out $end
$var wire 1 0 c_end $end
$var wire 1 1 b_ser_out $end
$var wire 8 2 b_out [7:0] $end
$var wire 1 3 a_ser_out $end
$var wire 1 4 a_eq_b $end
$var wire 8 5 a [7:0] $end
$var reg 2 6 a_ctrl [1:0] $end
$var reg 1 7 a_ser_in $end
$var reg 1 8 b_ser_in $end
$var reg 1 " d_end $end
$var reg 1 9 en_counter $end
$var reg 1 : load_counter $end
$var reg 2 ; q_ctrl [1:0] $end
$var integer 32 < state_next [31:0] $end
$var integer 32 = state_reg [31:0] $end
$scope module A $end
$var wire 1 $ clk $end
$var wire 2 > ctrl [1:0] $end
$var wire 4 ? parallel_in [3:0] $end
$var wire 1 & rst $end
$var wire 1 7 ser_in $end
$var wire 4 @ parallel_out [3:0] $end
$var parameter 32 A N $end
$var reg 4 B r_next [3:0] $end
$var reg 4 C r_reg [3:0] $end
$var reg 1 3 ser_out $end
$var reg 1 D ser_value $end
$upscope $end
$scope module B $end
$var wire 1 $ clk $end
$var wire 2 E ctrl [1:0] $end
$var wire 4 F parallel_in [3:0] $end
$var wire 1 & rst $end
$var wire 1 8 ser_in $end
$var wire 4 G parallel_out [3:0] $end
$var parameter 32 H N $end
$var reg 4 I r_next [3:0] $end
$var reg 4 J r_reg [3:0] $end
$var reg 1 1 ser_out $end
$var reg 1 K ser_value $end
$upscope $end
$scope module Q $end
$var wire 1 $ clk $end
$var wire 2 L ctrl [1:0] $end
$var wire 4 M parallel_in [3:0] $end
$var wire 1 & rst $end
$var wire 1 3 ser_in $end
$var wire 4 N parallel_out [3:0] $end
$var parameter 32 O N $end
$var reg 4 P r_next [3:0] $end
$var reg 4 Q r_reg [3:0] $end
$var reg 1 * ser_out $end
$var reg 1 R ser_value $end
$upscope $end
$scope module count $end
$var wire 1 $ clk $end
$var wire 4 S data_in [3:0] $end
$var wire 4 T data_out [3:0] $end
$var wire 1 9 en $end
$var wire 1 : load $end
$var wire 1 & rst $end
$var wire 1 U up_down $end
$var wire 1 0 c_end $end
$var parameter 32 V N $end
$var reg 4 W r_next [3:0] $end
$var reg 4 X r_reg [3:0] $end
$upscope $end
$scope module operation $end
$var wire 8 Y a [7:0] $end
$var wire 8 Z b [7:0] $end
$var wire 1 [ c_in $end
$var wire 1 \ m $end
$var wire 4 ] s [3:0] $end
$var wire 4 ^ msb_f [3:0] $end
$var wire 1 _ msb_a_eq_b $end
$var wire 4 ` lsb_f [3:0] $end
$var wire 1 a lsb_a_eq_b $end
$var wire 8 b f [7:0] $end
$var wire 1 . c_ripple $end
$var wire 1 / c_out $end
$var reg 1 4 a_eq_b $end
$scope module lsb $end
$var wire 4 c a [3:0] $end
$var wire 4 d b [3:0] $end
$var wire 1 [ c_in $end
$var wire 1 \ m $end
$var wire 4 e s [3:0] $end
$var wire 1 a a_eq_b $end
$var reg 1 . c_out $end
$var reg 4 f f [3:0] $end
$var reg 5 g result [4:0] $end
$upscope $end
$scope module msb $end
$var wire 4 h a [3:0] $end
$var wire 4 i b [3:0] $end
$var wire 1 . c_in $end
$var wire 1 \ m $end
$var wire 4 j s [3:0] $end
$var wire 1 _ a_eq_b $end
$var reg 1 / c_out $end
$var reg 4 k f [3:0] $end
$var reg 5 l result [4:0] $end
$upscope $end
$upscope $end
$upscope $end
$scope task run_test $end
$var reg 16 m esperado [15:0] $end
$var reg 8 n multiplicador [7:0] $end
$var reg 8 o multiplicando [7:0] $end
$upscope $end
$upscope $end
$enddefinitions $end
$comment Show the parameter values. $end
$dumpall
b100 V
b100 O
b100 H
b100 A
$end
#0
$dumpvars
b0 o
b0 n
b0 m
b0 l
b0 k
b1 j
b0 i
b0 h
b0 g
b0 f
b1 e
b0 d
b0 c
b0 b
1a
b0 `
1_
b0 ^
b1 ]
0\
0[
b0 Z
b0 Y
b0 X
b1000 W
0U
b0 T
b1000 S
0R
b0 Q
b0 P
b0 N
b0 M
b11 L
0K
b0 J
b0 I
b0 G
b0 F
b11 E
0D
b0 C
b0 B
b0 @
b0 ?
b11 >
b0 =
b10 <
b11 ;
1:
09
x8
x7
b11 6
b0 5
x4
03
b0 2
01
10
0/
0.
b0 -
b0 ,
b0 +
0*
b0 )
b0 (
b0 '
1&
b0 %
0$
b0 #
0"
b0 !
$end
#10
b101 <
0:
b0 ;
b0 L
b0 6
b0 >
b10 =
00
b1000 -
b1000 T
b1000 X
0&
1$
#20
0$
#30
b0 <
1"
b101 =
1$
#40
0$
#50
b1 P
b10 B
b1000 W
b10 <
1:
b11 ;
b11 L
b11 6
b11 >
0"
b0 =
10
b0 -
b0 T
b0 X
b10 ?
b10 I
b10 ,
b10 b
b10 `
b10 f
b10 g
0a
b10 F
b10 d
b1 M
1&
b10 #
b10 '
b10 Z
b1 %
b1 (
b10 m
b10 o
b1 n
1$
#60
0$
#70
b100 ?
b100 ,
b100 b
b100 `
b100 f
b100 g
1a
b10 c
b101 <
0:
b0 ;
b0 L
b0 6
b0 >
b10 5
b10 Y
b10 @
b10 C
b10 2
b10 G
b10 J
b1000000001 !
b1000000001 )
b1 +
b1 N
b1 Q
00
b1000 -
b1000 T
b1000 X
b10 =
0&
1$
#80
0$
#90
b0 <
1"
b101 =
1$
#100
0$
#110
b11 B
b0 c
b1000 W
b10 <
1:
b11 ;
b11 L
b11 6
b11 >
0"
b0 5
b0 Y
b0 @
b0 C
b0 2
b0 G
b0 J
b0 !
b0 )
b0 +
b0 N
b0 Q
10
b0 -
b0 T
b0 X
b0 =
b11 ?
b11 I
b11 ,
b11 b
b11 `
b11 f
b11 g
0a
b11 F
b11 d
1&
b11 #
b11 '
b11 Z
b11 m
b11 o
1$
#120
0$
#130
b110 ?
b110 ,
b110 b
b110 `
b110 f
b110 g
1a
b101 <
0:
b0 ;
b0 L
b0 6
b0 >
b11 c
b10 =
00
b1000 -
b1000 T
b1000 X
b1 +
b1 N
b1 Q
b11 2
b11 G
b11 J
b1100000001 !
b1100000001 )
b11 5
b11 Y
b11 @
b11 C
0&
1$
#140
0$
#150
b0 <
1"
b101 =
1$
#160
0$
#170
b1000 W
b10 <
1:
b11 ;
b11 L
b11 6
b11 >
0"
b100 B
b0 c
b0 =
10
b0 -
b0 T
b0 X
b0 +
b0 N
b0 Q
b0 2
b0 G
b0 J
b0 !
b0 )
b0 5
b0 Y
b0 @
b0 C
b100 ?
b100 I
b100 ,
b100 b
b100 `
b100 f
b100 g
0a
b100 F
b100 d
1&
b100 #
b100 '
b100 Z
b100 m
b100 o
1$
#180
0$
#190
b1000 ?
b1000 ,
b1000 b
b1000 `
b1000 f
b1000 g
1a
b100 c
b101 <
0:
b0 ;
b0 L
b0 6
b0 >
b100 5
b100 Y
b100 @
b100 C
b100 2
b100 G
b100 J
b10000000001 !
b10000000001 )
b1 +
b1 N
b1 Q
00
b1000 -
b1000 T
b1000 X
b10 =
0&
1$
#200
0$
#210
b0 <
1"
b101 =
1$
#220
0$
#230
b101 B
b0 c
b1000 W
b10 <
1:
b11 ;
b11 L
b11 6
b11 >
0"
b0 5
b0 Y
b0 @
b0 C
b0 2
b0 G
b0 J
b0 !
b0 )
b0 +
b0 N
b0 Q
10
b0 -
b0 T
b0 X
b0 =
b101 ?
b101 I
b101 ,
b101 b
b101 `
b101 f
b101 g
0a
b101 F
b101 d
1&
b101 #
b101 '
b101 Z
b101 m
b101 o
1$
#240
0$
#250
b1010 ?
b1010 ,
b1010 b
b1010 `
b1010 f
b1010 g
1a
b101 <
0:
b0 ;
b0 L
b0 6
b0 >
b101 c
b10 =
00
b1000 -
b1000 T
b1000 X
b1 +
b1 N
b1 Q
b101 2
b101 G
b101 J
b10100000001 !
b10100000001 )
b101 5
b101 Y
b101 @
b101 C
0&
1$
#260
0$
#270
b0 <
1"
b101 =
1$
#280
0$
#290
b1000 W
b1111 P
b10 <
1:
b11 ;
b11 L
b11 6
b11 >
0"
b1001 B
b0 c
b0 =
10
b0 -
b0 T
b0 X
b0 +
b0 N
b0 Q
b0 2
b0 G
b0 J
b0 !
b0 )
b0 5
b0 Y
b0 @
b0 C
b1001 ?
b1001 I
b1001 `
b1001 f
b1001 g
0a
b11001001 ,
b11001001 b
b1100 ^
b1100 k
b1100 l
0_
b1001 F
b1001 d
b1100 i
b1111 M
1&
b11001001 #
b11001001 '
b11001001 Z
b1111111 %
b1111111 (
b110001110110111 m
b11001001 o
b1111111 n
1$
#300
0$
#310
b1101 ^
b1101 k
b1101 l
b10 ?
1.
b11010010 ,
b11010010 b
b10 `
b10 f
b10010 g
1a
b1001 c
b101 <
0:
b0 ;
b0 L
b0 6
b0 >
b1001 5
b1001 Y
b1001 @
b1001 C
b1001 2
b1001 G
b1001 J
b100100001111 !
b100100001111 )
b1111 +
b1111 N
b1111 Q
00
b1000 -
b1000 T
b1000 X
b10 =
0&
1$
#320
0$
#330
b0 <
1"
b101 =
1$
#340
0$
#350
0.
b1111 B
b0 c
b1000 W
b10 <
1:
b11 ;
b11 L
b11 6
b11 >
0"
b0 5
b0 Y
b0 @
b0 C
b0 2
b0 G
b0 J
b0 !
b0 )
b0 +
b0 N
b0 Q
10
b0 -
b0 T
b0 X
b0 =
b1111 ?
b1111 I
b1111 `
b1111 f
b1111 g
0a
0/
b11111111 ,
b11111111 b
b1111 ^
b1111 k
b1111 l
b1111 F
b1111 d
b1111 i
1&
b11111111 #
b11111111 '
b11111111 Z
b11111111 %
b11111111 (
b1111111000000001 m
b11111111 o
b11111111 n
1$
#360
0$
#370
1/
b0 ^
b0 k
b10000 l
b1110 ?
1.
b1110 ,
b1110 b
b1110 `
b1110 f
b11110 g
1a
b101 <
0:
b0 ;
b0 L
b0 6
b0 >
b1111 c
b10 =
00
b1000 -
b1000 T
b1000 X
b1111 +
b1111 N
b1111 Q
b1111 2
b1111 G
b1111 J
b111100001111 !
b111100001111 )
b1111 5
b1111 Y
b1111 @
b1111 C
0&
1$
#380
0$
#390
b0 <
1"
b101 =
1$
#400
0$
#410
0.
b1000 W
b0 P
b10 <
1:
b11 ;
b11 L
b11 6
b11 >
0"
b10 B
b0 c
b0 =
10
b0 -
b0 T
b0 X
b0 +
b0 N
b0 Q
b0 2
b0 G
b0 J
b0 !
b0 )
b0 5
b0 Y
b0 @
b0 C
b10 ?
b10 I
b10 `
b10 f
b10 g
0a
0/
b10 ,
b10 b
b0 ^
b0 k
b0 l
1_
b10 F
b10 d
b0 i
b0 M
1&
b10 #
b10 '
b10 Z
b10000000 %
b10000000 (
b100000000 m
b10 o
b10000000 n
1$
#420
0$
#430
b100 ?
b100 ,
b100 b
b100 `
b100 f
b100 g
1a
b10 c
b101 <
0:
b0 ;
b0 L
b0 6
b0 >
b1000000000 !
b1000000000 )
b10 5
b10 Y
b10 @
b10 C
b10 2
b10 G
b10 J
00
b1000 -
b1000 T
b1000 X
b10 =
0&
1$
#440
0$
#450
b0 <
1"
b101 =
1$
#460
0$
#470
b0 B
b0 c
b1000 W
b10 <
1:
b11 ;
b11 L
b11 6
b11 >
0"
b0 !
b0 )
b0 5
b0 Y
b0 @
b0 C
b0 2
b0 G
b0 J
10
b0 -
b0 T
b0 X
b0 =
b0 ?
b0 I
b0 `
b0 f
b0 g
1a
b10000000 ,
b10000000 b
b1000 ^
b1000 k
b1000 l
0_
b0 F
b0 d
b1000 i
1&
b10000000 #
b10000000 '
b10000000 Z
b100000000000000 m
b10000000 o
1$
#480
0$
#490
b101 <
0:
b0 ;
b0 L
b0 6
b0 >
b10 =
00
b1000 -
b1000 T
b1000 X
0&
1$
#500
0$
#510
b0 <
1"
b101 =
1$
#520
0$
#530
b1010 P
b1010 B
b1000 W
b10 <
1:
b11 ;
b11 L
b11 6
b11 >
0"
b0 =
10
b0 -
b0 T
b0 X
b1010 ?
b1010 I
b1010 `
b1010 f
b1010 g
0a
b10101010 ,
b10101010 b
b1010 ^
b1010 k
b1010 l
b1010 F
b1010 d
b1010 i
b1010 M
1&
b10101010 #
b10101010 '
b10101010 Z
b10101010 %
b10101010 (
b111000011100100 m
b10101010 o
b10101010 n
1$
#540
0$
#550
b1011 ^
b1011 k
b1011 l
b100 ?
1.
b10110100 ,
b10110100 b
b100 `
b100 f
b10100 g
1a
b1010 c
b101 <
0:
b0 ;
b0 L
b0 6
b0 >
b1010 5
b1010 Y
b1010 @
b1010 C
b1010 2
b1010 G
b1010 J
b101000001010 !
b101000001010 )
b1010 +
b1010 N
b1010 Q
00
b1000 -
b1000 T
b1000 X
b10 =
0&
1$
#560
0$
#570
b0 <
1"
b101 =
1$
#580
0$
#590
0.
b1111 B
b0 c
b1111 P
b1000 W
b10 <
1:
b11 ;
b11 L
b11 6
b11 >
0"
b0 5
b0 Y
b0 @
b0 C
b0 2
b0 G
b0 J
b0 !
b0 )
b0 +
b0 N
b0 Q
10
b0 -
b0 T
b0 X
b0 =
b1111 ?
b1111 I
b1111 `
b1111 f
b1111 g
0a
0/
b11111111 ,
b11111111 b
b1111 ^
b1111 k
b1111 l
b1111 F
b1111 d
b1111 i
b1111 M
1&
b11111111 #
b11111111 '
b11111111 Z
b11111111 %
b11111111 (
b1111111000000001 m
b11111111 o
b11111111 n
1$
#600
0$
#610
1/
b0 ^
b0 k
b10000 l
b1110 ?
1.
b1110 ,
b1110 b
b1110 `
b1110 f
b11110 g
1a
b101 <
0:
b0 ;
b0 L
b0 6
b0 >
b1111 c
b10 =
00
b1000 -
b1000 T
b1000 X
b1111 +
b1111 N
b1111 Q
b1111 2
b1111 G
b1111 J
b111100001111 !
b111100001111 )
b1111 5
b1111 Y
b1111 @
b1111 C
0&
1$
#620
0$
#630
b0 <
1"
b101 =
1$
#640
0$
#650
b1110 B
b10 <
1:
b11 ;
b11 L
b11 6
b11 >
0"
b0 =
1$
