shift_add_multiplier.vcd
$date
	Sat Sep 06 12:40:39 2025
$end
$version
	Icarus Verilog
$end
$timescale
	1s
$end
$scope module tb_shift_add_multiplier $end
$var wire 16 ! result [15:0] $end
$var wire 1 " d_end $end
$var reg 8 # b [7:0] $end
$var reg 1 $ clk $end
$var reg 8 % q [7:0] $end
$var reg 1 & rst $end
$scope module uut $end
$var wire 8 ' b [7:0] $end
$var wire 1 $ clk $end
$var wire 8 ( q [7:0] $end
$var wire 1 & rst $end
$var wire 16 ) result [15:0] $end
$var wire 1 * q_ser_out $end
$var wire 8 + q_out [7:0] $end
$var wire 8 , f [7:0] $end
$var wire 4 - data_out [3:0] $end
$var wire 1 . c_ripple $end
$var wire 1 / c_out $end
$var wire 1 0 c_end $end
$var wire 1 1 b_ser_out $end
$var wire 8 2 b_out [7:0] $end
$var wire 1 3 a_ser_out $end
$var wire 9 4 a_out [8:0] $end
$var wire 1 5 a_eq_b $end
$var reg 9 6 a [8:0] $end
$var reg 2 7 a_ctrl [1:0] $end
$var reg 2 8 b_ctrl [1:0] $end
$var reg 1 9 b_ser_in $end
$var reg 1 " d_end $end
$var reg 1 : en_counter $end
$var reg 1 ; load_counter $end
$var reg 2 < q_ctrl [1:0] $end
$var integer 32 = state_next [31:0] $end
$var integer 32 > state_reg [31:0] $end
$scope module A $end
$var wire 1 $ clk $end
$var wire 2 ? ctrl [1:0] $end
$var wire 9 @ parallel_in [8:0] $end
$var wire 1 & rst $end
$var wire 1 A ser_in $end
$var wire 9 B parallel_out [8:0] $end
$var parameter 32 C N $end
$var reg 9 D r_next [8:0] $end
$var reg 9 E r_reg [8:0] $end
$var reg 1 3 ser_out $end
$var reg 1 F ser_value $end
$upscope $end
$scope module B $end
$var wire 1 $ clk $end
$var wire 2 G ctrl [1:0] $end
$var wire 8 H parallel_in [7:0] $end
$var wire 1 & rst $end
$var wire 1 9 ser_in $end
$var wire 8 I parallel_out [7:0] $end
$var parameter 32 J N $end
$var reg 8 K r_next [7:0] $end
$var reg 8 L r_reg [7:0] $end
$var reg 1 1 ser_out $end
$var reg 1 M ser_value $end
$upscope $end
$scope module Q $end
$var wire 1 $ clk $end
$var wire 2 N ctrl [1:0] $end
$var wire 8 O parallel_in [7:0] $end
$var wire 1 & rst $end
$var wire 1 P ser_in $end
$var wire 8 Q parallel_out [7:0] $end
$var parameter 32 R N $end
$var reg 8 S r_next [7:0] $end
$var reg 8 T r_reg [7:0] $end
$var reg 1 * ser_out $end
$var reg 1 U ser_value $end
$upscope $end
$scope module count $end
$var wire 1 $ clk $end
$var wire 4 V data_in [3:0] $end
$var wire 4 W data_out [3:0] $end
$var wire 1 : en $end
$var wire 1 ; load $end
$var wire 1 & rst $end
$var wire 1 X up_down $end
$var wire 1 0 c_end $end
$var parameter 32 Y N $end
$var reg 4 Z r_next [3:0] $end
$var reg 4 [ r_reg [3:0] $end
$upscope $end
$scope module operation $end
$var wire 8 \ a [7:0] $end
$var wire 8 ] b [7:0] $end
$var wire 1 ^ c_in $end
$var wire 1 _ m $end
$var wire 4 ` s [3:0] $end
$var wire 4 a msb_f [3:0] $end
$var wire 1 b msb_a_eq_b $end
$var wire 4 c lsb_f [3:0] $end
$var wire 1 d lsb_a_eq_b $end
$var wire 8 e f [7:0] $end
$var wire 1 . c_ripple $end
$var wire 1 / c_out $end
$var reg 1 5 a_eq_b $end
$scope module lsb $end
$var wire 4 f a [3:0] $end
$var wire 4 g b [3:0] $end
$var wire 1 ^ c_in $end
$var wire 1 _ m $end
$var wire 4 h s [3:0] $end
$var wire 1 d a_eq_b $end
$var reg 1 . c_out $end
$var reg 4 i f [3:0] $end
$var reg 5 j result [4:0] $end
$upscope $end
$scope module msb $end
$var wire 4 k a [3:0] $end
$var wire 4 l b [3:0] $end
$var wire 1 . c_in $end
$var wire 1 _ m $end
$var wire 4 m s [3:0] $end
$var wire 1 b a_eq_b $end
$var reg 1 / c_out $end
$var reg 4 n f [3:0] $end
$var reg 5 o result [4:0] $end
$upscope $end
$upscope $end
$upscope $end
$scope task test $end
$var reg 8 p multiplicador [7:0] $end
$var reg 8 q multiplicando [7:0] $end
$var reg 16 r resultado_esperado [15:0] $end
$upscope $end
$upscope $end
$enddefinitions $end
$comment Show the parameter values. $end
$dumpall
b100 Y
b1000 R
b1000 J
b1001 C
$end
#0
$dumpvars
b0 r
b0 q
b0 p
b0 o
b0 n
b1 m
b0 l
b0 k
b0 j
b0 i
b1 h
b0 g
b0 f
b0 e
1d
b0 c
1b
b0 a
b1 `
0_
0^
b0 ]
b0 \
b0 [
b111 Z
0X
b0 W
b111 V
0U
b0 T
b0 S
b0 Q
0P
b0 O
b11 N
0M
b0 L
b0 K
b0 I
b0 H
b11 G
0F
b0 E
b0 D
b0 B
0A
b0 @
b11 ?
b0 >
b10 =
b11 <
1;
0:
x9
b11 8
b11 7
b0 6
x5
b0 4
03
b0 2
01
10
0/
0.
b0 -
b0 ,
b0 +
0*
b0 )
b0 (
b0 '
1&
b0 %
0$
b0 #
0"
b0 !
$end
#10
b100 =
0;
b0 <
b0 N
b0 8
b0 G
b0 7
b0 ?
b10 >
00
b111 -
b111 W
b111 [
0&
1$
#20
0$
#30
b110 Z
b10 =
1:
b1 <
b1 N
b1 7
b1 ?
b100 >
1$
#40
0$
#50
b100 =
0:
b0 <
b0 N
b0 7
b0 ?
b110 Z
b10 >
b110 -
b110 W
b110 [
1$
#60
0$
#70
b101 Z
b10 =
1:
b1 <
b1 N
b1 7
b1 ?
b100 >
1$
#80
0$
#90
b100 =
0:
b0 <
b0 N
b0 7
b0 ?
b101 Z
b10 >
b101 -
b101 W
b101 [
1$
#100
0$
#110
b100 Z
b10 =
1:
b1 <
b1 N
b1 7
b1 ?
b100 >
1$
#120
0$
#130
b100 =
0:
b0 <
b0 N
b0 7
b0 ?
b100 Z
b10 >
b100 -
b100 W
b100 [
1$
#140
0$
#150
b11 Z
b10 =
1:
b1 <
b1 N
b1 7
b1 ?
b100 >
1$
#160
0$
#170
b100 =
0:
b0 <
b0 N
b0 7
b0 ?
b11 Z
b10 >
b11 -
b11 W
b11 [
1$
#180
0$
#190
b10 Z
b10 =
1:
b1 <
b1 N
b1 7
b1 ?
b100 >
1$
#200
0$
#210
b100 =
0:
b0 <
b0 N
b0 7
b0 ?
b10 Z
b10 >
b10 -
b10 W
b10 [
1$
#220
0$
#230
b1 Z
b10 =
1:
b1 <
b1 N
b1 7
b1 ?
b100 >
1$
#240
0$
#250
b100 =
0:
b0 <
b0 N
b0 7
b0 ?
b1 Z
b10 >
b1 -
b1 W
b1 [
1$
#260
0$
#270
b0 Z
b10 =
1:
b1 <
b1 N
b1 7
b1 ?
b100 >
1$
#280
0$
#290
b100 =
0:
b0 <
b0 N
b0 7
b0 ?
b10 >
10
b0 -
b0 W
b0 [
1$
#300
0$
#310
b101 =
1:
b1 <
b1 N
b1 7
b1 ?
b100 >
1$
#320
0$
#330
b0 =
1"
0:
b0 <
b0 N
b0 7
b0 ?
b101 >
1$
#340
0$
#350
b111 Z
b11 S
b101 K
b10 =
1;
b11 <
b11 N
b11 8
b11 G
b11 7
b11 ?
0"
b0 >
1$
1&
b101 #
b101 '
b101 H
b11 %
b11 (
b11 O
b1111 r
b101 q
b11 p
#360
0$
0&
#370
b101 ,
b101 e
b101 c
b101 i
b101 j
0d
b11 =
0;
b0 <
b0 N
b0 8
b0 G
b0 7
b0 ?
b101 g
b10 >
00
b111 -
b111 W
b111 [
b11 !
b11 )
b11 +
b11 Q
b11 T
b101 2
b101 I
b101 L
b101 ]
1$
#380
0$
#390
b101 D
b100 =
b101 6
b101 @
b11 7
b11 ?
b11 >
1$
#400
0$
#410
b1010 ,
b1010 e
b1010 c
b1010 i
b1010 j
1d
b110 Z
b10 D
1F
b101 f
b10000001 S
1U
b10 =
1:
b1 <
b1 N
b0 6
b0 @
b1 7
b1 ?
b10100000011 !
b10100000011 )
b101 \
1P
b100 >
b101 4
b101 B
b101 E
1$
#420
0$
#430
b111 ,
b111 e
b111 c
b111 i
b111 j
0d
b10 f
0F
b10 \
0P
0U
b11 =
0:
b0 <
b0 N
b0 7
b0 ?
b10 4
b10 B
b10 E
13
b1010000001 !
b1010000001 )
b10000001 +
b10000001 Q
b10000001 T
1*
b110 -
b110 W
b110 [
b10 >
1$
#440
0$
#450
b111 D
b100 =
b111 6
b111 @
b11 7
b11 ?
b11 >
0*
03
1$
#460
0$
#470
b1100 ,
b1100 e
b1100 c
b1100 i
b1100 j
b111 f
b101 Z
b11000000 S
1U
b11 D
1F
b11110000001 !
b11110000001 )
b111 \
1P
b10 =
1:
b1 <
b1 N
b0 6
b0 @
b1 7
b1 ?
b111 4
b111 B
b111 E
b100 >
1$
#480
0$
#490
b1000 ,
b1000 e
b1000 c
b1000 i
b1000 j
b11 f
0U
b100 =
0:
b0 <
b0 N
b0 7
b0 ?
b11 D
0F
b11 \
b10 >
b101 -
b101 W
b101 [
b1111000000 !
b1111000000 )
b11000000 +
b11000000 Q
b11000000 T
1*
b11 4
b11 B
b11 E
13
1$
#500
0$
#510
b100 Z
b11100000 S
b1 D
1F
b10 =
1:
b1 <
b1 N
b1 7
b1 ?
03
0*
b100 >
1$
#520
0$
#530
b110 ,
b110 e
b110 c
b110 i
b110 j
b1 f
b100 =
0:
b0 <
b0 N
b0 7
b0 ?
b1 D
0F
b1 \
b10 >
b100 -
b100 W
b100 [
b111100000 !
b111100000 )
b11100000 +
b11100000 Q
b11100000 T
b1 4
b1 B
b1 E
13
1$
#540
0$
#550
b11 Z
b11110000 S
b0 D
1F
b10 =
1:
b1 <
b1 N
b1 7
b1 ?
03
b100 >
1$
#560
0$
#570
b101 ,
b101 e
b101 c
b101 i
b101 j
b0 f
b100 =
0:
b0 <
b0 N
b0 7
b0 ?
0F
b0 \
0P
b10 >
b11 -
b11 W
b11 [
b11110000 !
b11110000 )
b11110000 +
b11110000 Q
b11110000 T
b0 4
b0 B
b0 E
13
1$
#580
0$
#590
b10 Z
b1111000 S
b10 =
1:
b1 <
b1 N
b1 7
b1 ?
03
b100 >
1$
#600
0$
#610
b100 =
0:
b0 <
b0 N
b0 7
b0 ?
b10 >
b10 -
b10 W
b10 [
b1111000 !
b1111000 )
b1111000 +
b1111000 Q
b1111000 T
1$
#620
0$
#630
b1 Z
b111100 S
b10 =
1:
b1 <
b1 N
b1 7
b1 ?
b100 >
1$
#640
0$
#650
b100 =
0:
b0 <
b0 N
b0 7
b0 ?
b10 >
b1 -
b1 W
b1 [
b111100 !
b111100 )
b111100 +
b111100 Q
b111100 T
1$
#660
0$
#670
b0 Z
b11110 S
b10 =
1:
b1 <
b1 N
b1 7
b1 ?
b100 >
1$
#680
0$
#690
b100 =
0:
b0 <
b0 N
b0 7
b0 ?
b10 >
10
b0 -
b0 W
b0 [
b11110 !
b11110 )
b11110 +
b11110 Q
b11110 T
1$
#700
0$
#710
b1111 S
b101 =
1:
b1 <
b1 N
b1 7
b1 ?
b100 >
1$
#720
0$
#730
b0 =
1"
0:
b0 <
b0 N
b0 7
b0 ?
b101 >
b1111 !
b1111 )
b1111 +
b1111 Q
b1111 T
1$
#740
0$
#750
b0 ,
b0 e
b0 c
b0 i
b0 j
1d
b111 Z
b1100 K
b0 g
b1010 S
b10 =
1;
b11 <
b11 N
b11 8
b11 G
b11 7
b11 ?
0"
b0 2
b0 I
b0 L
b0 ]
b0 !
b0 )
b0 +
b0 Q
b0 T
b0 >
1$
1&
b1100 #
b1100 '
b1100 H
b1010 %
b1010 (
b1010 O
b1111000 r
b1100 q
b1010 p
#760
0$
0&
#770
b1100 ,
b1100 e
b1100 c
b1100 i
b1100 j
0d
b100 =
0;
b0 <
b0 N
b0 8
b0 G
b0 7
b0 ?
b1100 g
b10 >
00
b111 -
b111 W
b111 [
b1010 !
b1010 )
b1010 +
b1010 Q
b1010 T
b1100 2
b1100 I
b1100 L
b1100 ]
1$
#780
0$
#790
b110 Z
b101 S
b10 =
1:
b1 <
b1 N
b1 7
b1 ?
b100 >
1$
#800
0$
#810
b11 =
0:
b0 <
b0 N
b0 7
b0 ?
b10 >
b110 -
b110 W
b110 [
b101 !
b101 )
b101 +
b101 Q
b101 T
1$
#820
0$
#830
b1100 D
b100 =
b1100 6
b1100 @
b11 7
b11 ?
b11 >
1$
#840
0$
#850
b1 a
b1 n
b1 o
1.
b11000 ,
b11000 e
b1000 c
b1000 i
b11000 j
1d
b101 Z
b10 S
1U
b110 D
b1100 f
b10 =
1:
b1 <
b1 N
b0 6
b0 @
b1 7
b1 ?
b110000000101 !
b110000000101 )
b1100 \
b100 >
b1100 4
b1100 B
b1100 E
1$
#860
0$
#870
b10010 ,
b10010 e
b10 c
b10 i
b10010 j
0d
b110 f
b110 \
0U
b100 =
0:
b0 <
b0 N
b0 7
b0 ?
b110 4
b110 B
b110 E
b11000000010 !
b11000000010 )
b10 +
b10 Q
b10 T
1*
b101 -
b101 W
b101 [
b10 >
1$
#880
0$
#890
b100 Z
b1 S
b11 D
b10 =
1:
b1 <
b1 N
b1 7
b1 ?
b100 >
0*
1$
#900
0$
#910
b0 a
b0 n
b0 o
0.
b1111 ,
b1111 e
b1111 c
b1111 i
b1111 j
b11 f
b11 \
1P
b11 =
0:
b0 <
b0 N
b0 7
b0 ?
b11 4
b11 B
b11 E
b1100000001 !
b1100000001 )
b1 +
b1 Q
b1 T
b100 -
b100 W
b100 [
b10 >
1$
#920
0$
#930
b1111 D
b100 =
b1111 6
b1111 @
b11 7
b11 ?
b11 >
1$
#940
0$
#950
b1 a
b1 n
b1 o
1.
b11011 ,
b11011 e
b1011 c
b1011 i
b11011 j
b1111 f
b11 Z
b10000000 S
1U
b111 D
1F
b111100000001 !
b111100000001 )
b1111 \
b10 =
1:
b1 <
b1 N
b0 6
b0 @
b1 7
b1 ?
b1111 4
b1111 B
b1111 E
b100 >
1$
#960
0$
#970
b10011 ,
b10011 e
b11 c
b11 i
b10011 j
b111 f
0U
b100 =
0:
b0 <
b0 N
b0 7
b0 ?
b111 D
0F
b111 \
b10 >
b11 -
b11 W
b11 [
b11110000000 !
b11110000000 )
b10000000 +
b10000000 Q
b10000000 T
1*
b111 4
b111 B
b111 E
13
1$
#980
0$
#990
b10 Z
b11000000 S
b11 D
1F
b10 =
1:
b1 <
b1 N
b1 7
b1 ?
03
0*
b100 >
1$
#1000
0$
#1010
b0 a
b0 n
b0 o
0.
b1111 ,
b1111 e
b1111 c
b1111 i
b1111 j
b11 f
b100 =
0:
b0 <
b0 N
b0 7
b0 ?
b11 D
0F
b11 \
b10 >
b10 -
b10 W
b10 [
b1111000000 !
b1111000000 )
b11000000 +
b11000000 Q
b11000000 T
b11 4
b11 B
b11 E
13
1$
#1020
0$
#1030
b1 Z
b11100000 S
b1 D
1F
b10 =
1:
b1 <
b1 N
b1 7
b1 ?
03
b100 >
1$
#1040
0$
#1050
b1101 ,
b1101 e
b1101 c
b1101 i
b1101 j
b1 f
b100 =
0:
b0 <
b0 N
b0 7
b0 ?
b1 D
0F
b1 \
b10 >
b1 -
b1 W
b1 [
b111100000 !
b111100000 )
b11100000 +
b11100000 Q
b11100000 T
b1 4
b1 B
b1 E
13
1$
#1060
0$
#1070
b0 Z
b11110000 S
b0 D
1F
b10 =
1:
b1 <
b1 N
b1 7
b1 ?
03
b100 >
1$
#1080
0$
#1090
b1100 ,
b1100 e
b1100 c
b1100 i
b1100 j
b0 f
b100 =
0:
b0 <
b0 N
b0 7
b0 ?
0F
b0 \
0P
b10 >
10
b0 -
b0 W
b0 [
b11110000 !
b11110000 )
b11110000 +
b11110000 Q
b11110000 T
b0 4
b0 B
b0 E
13
1$
#1100
0$
#1110
b1111000 S
b101 =
1:
b1 <
b1 N
b1 7
b1 ?
03
b100 >
1$
#1120
0$
#1130
b0 =
1"
0:
b0 <
b0 N
b0 7
b0 ?
b101 >
b1111000 !
b1111000 )
b1111000 +
b1111000 Q
b1111000 T
1$
#1140
0$
#1150
b0 ,
b0 e
b0 c
b0 i
b0 j
1d
b111 Z
b11001001 K
b0 g
b1111111 S
b10 =
1;
b11 <
b11 N
b11 8
b11 G
b11 7
b11 ?
0"
b0 2
b0 I
b0 L
b0 ]
b0 !
b0 )
b0 +
b0 Q
b0 T
b0 >
1$
1&
b11001001 #
b11001001 '
b11001001 H
b1111111 %
b1111111 (
b1111111 O
b110001110110111 r
b11001001 q
b1111111 p
#1160
0$
0&
#1170
b1001 c
b1001 i
b1001 j
0d
b11001001 ,
b11001001 e
b1100 a
b1100 n
b1100 o
0b
b11 =
0;
b0 <
b0 N
b0 8
b0 G
b0 7
b0 ?
b1001 g
b1100 l
b10 >
00
b111 -
b111 W
b111 [
b1111111 !
b1111111 )
b1111111 +
b1111111 Q
b1111111 T
b11001001 2
b11001001 I
b11001001 L
b11001001 ]
1$
#1180
0$
#1190
b11001001 D
b100 =
b11001001 6
b11001001 @
b11 7
b11 ?
b11 >
1$
#1200
0$
#1210
1.
b10 c
b10 i
b10010 j
1d
1/
b10010010 ,
b10010010 e
b1001 a
b1001 n
b11001 o
1b
b110 Z
b1100100 D
1F
b1001 f
b1100 k
b10111111 S
1U
b10 =
1:
b1 <
b1 N
b0 6
b0 @
b1 7
b1 ?
b1100100101111111 !
b1100100101111111 )
b11001001 \
1P
b100 >
b11001001 4
b11001001 B
b11001001 E
1$
#1220
0$
#1230
0.
b1101 c
b1101 i
b1101 j
0d
b101101 ,
b101101 e
b10 a
b10 n
b10010 o
0b
b100 f
b110 k
0F
b1100100 \
0P
0U
b11 =
0:
b0 <
b0 N
b0 7
b0 ?
b1100100 4
b1100100 B
b1100100 E
13
b110010010111111 !
b110010010111111 )
b10111111 +
b10111111 Q
b10111111 T
1*
b110 -
b110 W
b110 [
b10 >
1$
#1240
0$
#1250
b100101101 D
b100 =
b100101101 6
b100101101 @
b11 7
b11 ?
b11 >
0*
03
1$
#1260
0$
#1270
1.
b110 c
b110 i
b10110 j
0/
b11110110 ,
b11110110 e
b1111 a
b1111 n
b1111 o
b1101 f
b10 k
b101 Z
b11011111 S
1U
b10010110 D
1F
b10110110111111 !
b10110110111111 )
b101101 \
1P
b10 =
1:
b1 <
b1 N
b0 6
b0 @
b1 7
b1 ?
b100101101 4
b100101101 B
b100101101 E
b100 >
1$
#1280
0$
#1290
0.
b1111 c
b1111 i
b1111 j
1/
b1011111 ,
b1011111 e
b101 a
b101 n
b10101 o
b110 f
b1001 k
0U
b11 =
0:
b0 <
b0 N
b0 7
b0 ?
b10010110 D
0F
b10010110 \
0P
b10 >
b101 -
b101 W
b101 [
b1001011011011111 !
b1001011011011111 )
b11011111 +
b11011111 Q
b11011111 T
1*
b10010110 4
b10010110 B
b10010110 E
13
1$
#1300
0$
#1310
b101011111 D
b100 =
b101011111 6
b101011111 @
b11 7
b11 ?
03
0*
b11 >
1$
#1320
0$
#1330
1.
b1000 c
b1000 i
b11000 j
b101000 ,
b101000 e
b10 a
b10 n
b10010 o
b100 Z
b10101111 D
1F
b1111 f
b101 k
b11101111 S
1U
b10 =
1:
b1 <
b1 N
b0 6
b0 @
b1 7
b1 ?
b101111111011111 !
b101111111011111 )
b1011111 \
1P
b100 >
b101011111 4
b101011111 B
b101011111 E
1$
#1340
0$
#1350
b1111000 ,
b1111000 e
b111 a
b111 n
b10111 o
b1010 k
0F
b10101111 \
0U
b11 =
0:
b0 <
b0 N
b0 7
b0 ?
b10101111 4
b10101111 B
b10101111 E
13
b1010111111101111 !
b1010111111101111 )
b11101111 +
b11101111 Q
b11101111 T
1*
b100 -
b100 W
b100 [
b10 >
1$
#1360
0$
#1370
b101111000 D
b100 =
b101111000 6
b101111000 @
b11 7
b11 ?
b11 >
0*
03
1$
#1380
0$
#1390
b1 c
b1 i
b10001 j
b1000001 ,
b1000001 e
b100 a
b100 n
b10100 o
b1000 f
b111 k
b11 Z
b1110111 S
1U
b10111100 D
b111100011101111 !
b111100011101111 )
b1111000 \
0P
b10 =
1:
b1 <
b1 N
b0 6
b0 @
b1 7
b1 ?
b101111000 4
b101111000 B
b101111000 E
b100 >
1$
#1400
0$
#1410
b101 c
b101 i
b10101 j
b10000101 ,
b10000101 e
b1000 a
b1000 n
b11000 o
b1100 f
b1011 k
0U
b11 =
0:
b0 <
b0 N
b0 7
b0 ?
b10111100 D
b10111100 \
b10 >
b11 -
b11 W
b11 [
b1011110001110111 !
b1011110001110111 )
b1110111 +
b1110111 Q
b1110111 T
1*
b10111100 4
b10111100 B
b10111100 E
1$
#1420
0$
#1430
b110000101 D
b100 =
b110000101 6
b110000101 @
b11 7
b11 ?
0*
b11 >
1$
#1440
0$
#1450
0.
b1110 c
b1110 i
b1110 j
b1001110 ,
b1001110 e
b100 a
b100 n
b10100 o
b10 Z
b11000010 D
1F
b101 f
b1000 k
b10111011 S
1U
b10 =
1:
b1 <
b1 N
b0 6
b0 @
b1 7
b1 ?
b1000010101110111 !
b1000010101110111 )
b10000101 \
1P
b100 >
b110000101 4
b110000101 B
b110000101 E
1$
#1460
0$
#1470
b1011 c
b1011 i
b1011 j
b10001011 ,
b10001011 e
b1000 a
b1000 n
b11000 o
1b
b10 f
b1100 k
0F
b11000010 \
0P
0U
b11 =
0:
b0 <
b0 N
b0 7
b0 ?
b11000010 4
b11000010 B
b11000010 E
13
b1100001010111011 !
b1100001010111011 )
b10111011 +
b10111011 Q
b10111011 T
1*
b10 -
b10 W
b10 [
b10 >
1$
#1480
0$
#1490
b110001011 D
b100 =
b110001011 6
b110001011 @
b11 7
b11 ?
b11 >
0*
03
1$
#1500
0$
#1510
1.
b100 c
b100 i
b10100 j
b1010100 ,
b1010100 e
b101 a
b101 n
b10101 o
0b
b1011 f
b1000 k
b1 Z
b11011101 S
1U
b11000101 D
1F
b1000101110111011 !
b1000101110111011 )
b10001011 \
1P
b10 =
1:
b1 <
b1 N
b0 6
b0 @
b1 7
b1 ?
b110001011 4
b110001011 B
b110001011 E
b100 >
1$
#1520
0$
#1530
0.
b1110 c
b1110 i
b1110 j
b10001110 ,
b10001110 e
b1000 a
b1000 n
b11000 o
1b
b101 f
b1100 k
0U
b11 =
0:
b0 <
b0 N
b0 7
b0 ?
b11000101 D
0F
b11000101 \
b10 >
b1 -
b1 W
b1 [
b1100010111011101 !
b1100010111011101 )
b11011101 +
b11011101 Q
b11011101 T
1*
b11000101 4
b11000101 B
b11000101 E
13
1$
#1540
0$
#1550
b110001110 D
b100 =
b110001110 6
b110001110 @
b11 7
b11 ?
03
0*
b11 >
1$
#1560
0$
#1570
1.
b111 c
b111 i
b10111 j
b1010111 ,
b1010111 e
b101 a
b101 n
b10101 o
0b
b0 Z
b11000111 D
b1110 f
b1000 k
b1101110 S
1U
b10 =
1:
b1 <
b1 N
b0 6
b0 @
b1 7
b1 ?
b1000111011011101 !
b1000111011011101 )
b10001110 \
0P
b100 >
b110001110 4
b110001110 B
b110001110 E
1$
#1580
0$
#1590
b0 c
b0 i
b10000 j
b10010000 ,
b10010000 e
b1001 a
b1001 n
b11001 o
1b
b111 f
b1100 k
b11000111 \
1P
0U
b100 =
0:
b0 <
b0 N
b0 7
b0 ?
b11000111 4
b11000111 B
b11000111 E
b1100011101101110 !
b1100011101101110 )
b1101110 +
b1101110 Q
b1101110 T
1*
10
b0 -
b0 W
b0 [
b10 >
1$
#1600
0$
#1610
b10110111 S
b1100011 D
1F
b101 =
1:
b1 <
b1 N
b1 7
b1 ?
b100 >
0*
1$
#1620
0$
#1630
0.
b1100 c
b1100 i
b1100 j
b101100 ,
b101100 e
b10 a
b10 n
b10010 o
0b
b11 f
b110 k
0F
b1100011 \
b0 =
1"
0:
b0 <
b0 N
b0 7
b0 ?
b1100011 4
b1100011 B
b1100011 E
13
b110001110110111 !
b110001110110111 )
b10110111 +
b10110111 Q
b10110111 T
b101 >
1$
#1640
0$
#1650
1d
1b
b111 Z
b0 c
b0 i
b0 j
0/
b0 ,
b0 e
b0 a
b0 n
b0 o
b0 f
b0 k
b10 S
b10 =
1;
b11 <
b11 N
b11 8
b11 G
b11 7
b11 ?
0"
b10 K
b0 g
b0 l
b0 D
b0 \
0P
b0 >
b0 !
b0 )
b0 +
b0 Q
b0 T
b0 2
b0 I
b0 L
b0 ]
03
b0 4
b0 B
b0 E
1$
1&
b10 #
b10 '
b10 H
b10 %
b10 (
b10 O
b100 r
b10 q
b10 p
#1660
0$
0&
#1670
b10 ,
b10 e
b10 c
b10 i
b10 j
0d
b10 g
b100 =
0;
b0 <
b0 N
b0 8
b0 G
b0 7
b0 ?
b10 2
b10 I
b10 L
b10 ]
b10 !
b10 )
b10 +
b10 Q
b10 T
00
b111 -
b111 W
b111 [
b10 >
1$
#1680
0$
#1690
b110 Z
b1 S
b10 =
1:
b1 <
b1 N
b1 7
b1 ?
b100 >
1$
#1700
0$
#1710
b11 =
0:
b0 <
b0 N
b0 7
b0 ?
b1 !
b1 )
b1 +
b1 Q
b1 T
b110 -
b110 W
b110 [
b10 >
1$
#1720
0$
#1730
b10 D
b100 =
b10 6
b10 @
b11 7
b11 ?
b11 >
1$
#1740
0$
#1750
b100 ,
b100 e
b100 c
b100 i
b100 j
1d
b10 f
b101 Z
b0 S
1U
b1 D
b1000000001 !
b1000000001 )
b10 \
b10 =
1:
b1 <
b1 N
b0 6
b0 @
b1 7
b1 ?
b10 4
b10 B
b10 E
b100 >
1$
#1760
0$
#1770
b11 ,
b11 e
b11 c
b11 i
b11 j
0d
b1 f
0U
b100 =
0:
b0 <
b0 N
b0 7
b0 ?
b1 D
0F
b1 \
1P
b10 >
b101 -
b101 W
b101 [
b100000000 !
b100000000 )
b0 +
b0 Q
b0 T
1*
b1 4
b1 B
b1 E
1$
#1780
0$
#1790
b100 Z
b10000000 S
b0 D
1F
b10 =
1:
b1 <
b1 N
b1 7
b1 ?
0*
b100 >
1$
#1800
0$
#1810
b10 ,
b10 e
b10 c
b10 i
b10 j
b0 f
b100 =
0:
b0 <
b0 N
b0 7
b0 ?
0F
b0 \
0P
b10 >
b100 -
b100 W
b100 [
b10000000 !
b10000000 )
b10000000 +
b10000000 Q
b10000000 T
b0 4
b0 B
b0 E
13
1$
#1820
0$
#1830
b11 Z
b1000000 S
b10 =
1:
b1 <
b1 N
b1 7
b1 ?
03
b100 >
1$
#1840
0$
#1850
b100 =
0:
b0 <
b0 N
b0 7
b0 ?
b10 >
b11 -
b11 W
b11 [
b1000000 !
b1000000 )
b1000000 +
b1000000 Q
b1000000 T
1$
#1860
0$
#1870
b10 Z
b100000 S
b10 =
1:
b1 <
b1 N
b1 7
b1 ?
b100 >
1$
#1880
0$
#1890
b100 =
0:
b0 <
b0 N
b0 7
b0 ?
b10 >
b10 -
b10 W
b10 [
b100000 !
b100000 )
b100000 +
b100000 Q
b100000 T
1$
#1900
0$
#1910
b1 Z
b10000 S
b10 =
1:
b1 <
b1 N
b1 7
b1 ?
b100 >
1$
#1920
0$
#1930
b100 =
0:
b0 <
b0 N
b0 7
b0 ?
b10 >
b1 -
b1 W
b1 [
b10000 !
b10000 )
b10000 +
b10000 Q
b10000 T
1$
#1940
0$
#1950
b0 Z
b1000 S
b10 =
1:
b1 <
b1 N
b1 7
b1 ?
b100 >
1$
#1960
0$
#1970
b100 =
0:
b0 <
b0 N
b0 7
b0 ?
b10 >
10
b0 -
b0 W
b0 [
b1000 !
b1000 )
b1000 +
b1000 Q
b1000 T
1$
#1980
0$
#1990
b100 S
b101 =
1:
b1 <
b1 N
b1 7
b1 ?
b100 >
1$
#2000
0$
#2010
b0 =
1"
0:
b0 <
b0 N
b0 7
b0 ?
b101 >
b100 !
b100 )
b100 +
b100 Q
b100 T
1$
#2020
0$
#2030
b0 ,
b0 e
b0 c
b0 i
b0 j
1d
b111 Z
b100 K
b0 g
b10 =
1;
b11 <
b11 N
b11 8
b11 G
b11 7
b11 ?
0"
b0 2
b0 I
b0 L
b0 ]
b0 !
b0 )
b0 +
b0 Q
b0 T
b0 >
1$
1&
b100 #
b100 '
b100 H
b100 %
b100 (
b100 O
b10000 r
b100 q
b100 p
#2040
0$
0&
#2050
b100 ,
b100 e
b100 c
b100 i
b100 j
0d
b100 =
0;
b0 <
b0 N
b0 8
b0 G
b0 7
b0 ?
b100 g
b10 >
00
b111 -
b111 W
b111 [
b100 !
b100 )
b100 +
b100 Q
b100 T
b100 2
b100 I
b100 L
b100 ]
1$
#2060
0$
#2070
b110 Z
b10 S
b10 =
1:
b1 <
b1 N
b1 7
b1 ?
b100 >
1$
#2080
0$
#2090
b100 =
0:
b0 <
b0 N
b0 7
b0 ?
b10 >
b110 -
b110 W
b110 [
b10 !
b10 )
b10 +
b10 Q
b10 T
1$
#2100
0$
#2110
b101 Z
b1 S
b10 =
1:
b1 <
b1 N
b1 7
b1 ?
b100 >
1$
#2120
0$
#2130
b11 =
0:
b0 <
b0 N
b0 7
b0 ?
b10 >
b101 -
b101 W
b101 [
b1 !
b1 )
b1 +
b1 Q
b1 T
1$
#2140
0$
#2150
b100 D
b100 =
b100 6
b100 @
b11 7
b11 ?
b11 >
1$
#2160
0$
#2170
b1000 ,
b1000 e
b1000 c
b1000 i
b1000 j
1d
b100 Z
b0 S
1U
b10 D
b100 f
b10 =
1:
b1 <
b1 N
b0 6
b0 @
b1 7
b1 ?
b10000000001 !
b10000000001 )
b100 \
b100 >
b100 4
b100 B
b100 E
1$
#2180
0$
#2190
b110 ,
b110 e
b110 c
b110 i
b110 j
0d
b10 f
b10 \
0U
b100 =
0:
b0 <
b0 N
b0 7
b0 ?
b10 4
b10 B
b10 E
b1000000000 !
b1000000000 )
b0 +
b0 Q
b0 T
1*
b100 -
b100 W
b100 [
b10 >
1$
#2200
0$
#2210
b11 Z
b1 D
b10 =
1:
b1 <
b1 N
b1 7
b1 ?
b100 >
0*
1$
#2220
0$
