shift_add_multiplier.vcd
$date
	Fri Sep 05 23:04:59 2025
$end
$version
	Icarus Verilog
$end
$timescale
	1s
$end
$scope module tb_shift_add_multiplier $end
$var wire 16 ! result [15:0] $end
$var wire 1 " d_end $end
$var reg 8 # b [7:0] $end
$var reg 1 $ clk $end
$var reg 8 % q [7:0] $end
$var reg 1 & rst $end
$scope module uut $end
$var wire 8 ' b [7:0] $end
$var wire 1 $ clk $end
$var wire 8 ( q [7:0] $end
$var wire 1 & rst $end
$var wire 16 ) result [15:0] $end
$var wire 1 * q_ser_out $end
$var wire 8 + q_out [7:0] $end
$var wire 8 , f [7:0] $end
$var wire 4 - data_out [3:0] $end
$var wire 1 . c_ripple $end
$var wire 1 / c_out $end
$var wire 1 0 c_end $end
$var wire 1 1 b_ser_out $end
$var wire 8 2 b_out [7:0] $end
$var wire 1 3 a_ser_out $end
$var wire 8 4 a_out [7:0] $end
$var wire 1 5 a_eq_b $end
$var reg 8 6 a [7:0] $end
$var reg 2 7 a_ctrl [1:0] $end
$var reg 2 8 b_ctrl [1:0] $end
$var reg 1 9 b_ser_in $end
$var reg 1 " d_end $end
$var reg 1 : en_counter $end
$var reg 1 ; load_counter $end
$var reg 2 < q_ctrl [1:0] $end
$var integer 32 = state_next [31:0] $end
$var integer 32 > state_reg [31:0] $end
$scope module A $end
$var wire 1 $ clk $end
$var wire 2 ? ctrl [1:0] $end
$var wire 8 @ parallel_in [7:0] $end
$var wire 1 & rst $end
$var wire 1 A ser_in $end
$var wire 8 B parallel_out [7:0] $end
$var parameter 32 C N $end
$var reg 8 D r_next [7:0] $end
$var reg 8 E r_reg [7:0] $end
$var reg 1 3 ser_out $end
$var reg 1 F ser_value $end
$upscope $end
$scope module B $end
$var wire 1 $ clk $end
$var wire 2 G ctrl [1:0] $end
$var wire 8 H parallel_in [7:0] $end
$var wire 1 & rst $end
$var wire 1 9 ser_in $end
$var wire 8 I parallel_out [7:0] $end
$var parameter 32 J N $end
$var reg 8 K r_next [7:0] $end
$var reg 8 L r_reg [7:0] $end
$var reg 1 1 ser_out $end
$var reg 1 M ser_value $end
$upscope $end
$scope module Q $end
$var wire 1 $ clk $end
$var wire 2 N ctrl [1:0] $end
$var wire 8 O parallel_in [7:0] $end
$var wire 1 & rst $end
$var wire 1 P ser_in $end
$var wire 8 Q parallel_out [7:0] $end
$var parameter 32 R N $end
$var reg 8 S r_next [7:0] $end
$var reg 8 T r_reg [7:0] $end
$var reg 1 * ser_out $end
$var reg 1 U ser_value $end
$upscope $end
$scope module count $end
$var wire 1 $ clk $end
$var wire 4 V data_in [3:0] $end
$var wire 4 W data_out [3:0] $end
$var wire 1 : en $end
$var wire 1 ; load $end
$var wire 1 & rst $end
$var wire 1 X up_down $end
$var wire 1 0 c_end $end
$var parameter 32 Y N $end
$var reg 4 Z r_next [3:0] $end
$var reg 4 [ r_reg [3:0] $end
$upscope $end
$scope module operation $end
$var wire 8 \ a [7:0] $end
$var wire 8 ] b [7:0] $end
$var wire 1 ^ c_in $end
$var wire 1 _ m $end
$var wire 4 ` s [3:0] $end
$var wire 4 a msb_f [3:0] $end
$var wire 1 b msb_a_eq_b $end
$var wire 4 c lsb_f [3:0] $end
$var wire 1 d lsb_a_eq_b $end
$var wire 8 e f [7:0] $end
$var wire 1 . c_ripple $end
$var wire 1 / c_out $end
$var reg 1 5 a_eq_b $end
$scope module lsb $end
$var wire 4 f a [3:0] $end
$var wire 4 g b [3:0] $end
$var wire 1 ^ c_in $end
$var wire 1 _ m $end
$var wire 4 h s [3:0] $end
$var wire 1 d a_eq_b $end
$var reg 1 . c_out $end
$var reg 4 i f [3:0] $end
$var reg 5 j result [4:0] $end
$upscope $end
$scope module msb $end
$var wire 4 k a [3:0] $end
$var wire 4 l b [3:0] $end
$var wire 1 . c_in $end
$var wire 1 _ m $end
$var wire 4 m s [3:0] $end
$var wire 1 b a_eq_b $end
$var reg 1 / c_out $end
$var reg 4 n f [3:0] $end
$var reg 5 o result [4:0] $end
$upscope $end
$upscope $end
$upscope $end
$scope task test $end
$var reg 8 p multiplicador [7:0] $end
$var reg 8 q multiplicando [7:0] $end
$var reg 16 r resultado_esperado [15:0] $end
$upscope $end
$upscope $end
$enddefinitions $end
$comment Show the parameter values. $end
$dumpall
b100 Y
b1000 R
b1000 J
b1000 C
$end
#0
$dumpvars
b0 r
b0 q
b0 p
b0 o
b0 n
b1 m
b0 l
b0 k
b0 j
b0 i
b1 h
b0 g
b0 f
b0 e
1d
b0 c
1b
b0 a
b1 `
0_
0^
b0 ]
b0 \
b0 [
b111 Z
0X
b0 W
b111 V
0U
b0 T
b0 S
b0 Q
0P
b0 O
b11 N
0M
b0 L
b0 K
b0 I
b0 H
b11 G
0F
b0 E
b0 D
b0 B
0A
b0 @
b11 ?
b0 >
b10 =
b11 <
1;
0:
x9
b11 8
b11 7
b0 6
x5
b0 4
03
b0 2
01
10
0/
0.
b0 -
b0 ,
b0 +
0*
b0 )
b0 (
b0 '
1&
b0 %
0$
b0 #
0"
b0 !
$end
#10
b100 =
0;
b0 <
b0 N
b0 8
b0 G
b0 7
b0 ?
b10 >
00
b111 -
b111 W
b111 [
0&
1$
#20
0$
#30
b110 Z
b10 =
1:
b1 <
b1 N
b1 7
b1 ?
b100 >
1$
#40
0$
#50
b100 =
0:
b0 <
b0 N
b0 7
b0 ?
b110 Z
b10 >
b110 -
b110 W
b110 [
1$
#60
0$
#70
b101 Z
b10 =
1:
b1 <
b1 N
b1 7
b1 ?
b100 >
1$
#80
0$
#90
b100 =
0:
b0 <
b0 N
b0 7
b0 ?
b101 Z
b10 >
b101 -
b101 W
b101 [
1$
#100
0$
#110
b100 Z
b10 =
1:
b1 <
b1 N
b1 7
b1 ?
b100 >
1$
#120
0$
#130
b100 =
0:
b0 <
b0 N
b0 7
b0 ?
b100 Z
b10 >
b100 -
b100 W
b100 [
1$
#140
0$
#150
b11 Z
b10 =
1:
b1 <
b1 N
b1 7
b1 ?
b100 >
1$
#160
0$
#170
b100 =
0:
b0 <
b0 N
b0 7
b0 ?
b11 Z
b10 >
b11 -
b11 W
b11 [
1$
#180
0$
#190
b10 Z
b10 =
1:
b1 <
b1 N
b1 7
b1 ?
b100 >
1$
#200
0$
#210
b100 =
0:
b0 <
b0 N
b0 7
b0 ?
b10 Z
b10 >
b10 -
b10 W
b10 [
1$
#220
0$
#230
b1 Z
b10 =
1:
b1 <
b1 N
b1 7
b1 ?
b100 >
1$
#240
0$
#250
b100 =
0:
b0 <
b0 N
b0 7
b0 ?
b1 Z
b10 >
b1 -
b1 W
b1 [
1$
#260
0$
#270
b0 Z
b10 =
1:
b1 <
b1 N
b1 7
b1 ?
b100 >
1$
#280
0$
#290
b100 =
0:
b0 <
b0 N
b0 7
b0 ?
b10 >
10
b0 -
b0 W
b0 [
1$
#300
0$
#310
b101 =
1:
b1 <
b1 N
b1 7
b1 ?
b100 >
1$
#320
0$
#330
b0 =
1"
0:
b0 <
b0 N
b0 7
b0 ?
b101 >
1$
#340
0$
#350
b111 Z
b1 S
b11111111 K
b10 =
1;
b11 <
b11 N
b11 8
b11 G
b11 7
b11 ?
0"
b0 >
1$
1&
b11111111 #
b11111111 '
b11111111 H
b1 %
b1 (
b1 O
b11111111 r
b11111111 q
b1 p
#360
0$
0&
#370
b1111 c
b1111 i
b1111 j
0d
b11111111 ,
b11111111 e
b1111 a
b1111 n
b1111 o
0b
b11 =
0;
b0 <
b0 N
b0 8
b0 G
b0 7
b0 ?
b1111 g
b1111 l
b10 >
00
b111 -
b111 W
b111 [
b1 !
b1 )
b1 +
b1 Q
b1 T
b11111111 2
b11111111 I
b11111111 L
b11111111 ]
1$
#380
0$
#390
b11111111 D
b100 =
b11111111 6
b11111111 @
b11 7
b11 ?
b11 >
1$
#400
0$
#410
b110 Z
b1111111 D
1F
1.
b1110 c
b1110 i
b11110 j
1d
1/
b11111110 ,
b11111110 e
b1111 a
b1111 n
b11111 o
1b
b10000000 S
1U
b10 =
1:
b1 <
b1 N
b0 6
b0 @
b1 7
b1 ?
b1111 f
b1111 k
1P
b100 >
b1111111100000001 !
b1111111100000001 )
b11111111 4
b11111111 B
b11111111 E
b11111111 \
1$
#420
0$
#430
b1111110 ,
b1111110 e
b111 a
b111 n
b10111 o
0b
0F
b111 k
0U
b100 =
0:
b0 <
b0 N
b0 7
b0 ?
b1111111 4
b1111111 B
b1111111 E
b1111111 \
13
b111111110000000 !
b111111110000000 )
b10000000 +
b10000000 Q
b10000000 T
1*
b110 -
b110 W
b110 [
b10 >
1$
#440
0$
#450
b101 Z
b11000000 S
b111111 D
1F
b10 =
1:
b1 <
b1 N
b1 7
b1 ?
b100 >
0*
03
1$
#460
0$
#470
b111110 ,
b111110 e
b11 a
b11 n
b10011 o
0F
b11 k
b100 =
0:
b0 <
b0 N
b0 7
b0 ?
b111111 4
b111111 B
b111111 E
b111111 \
13
b11111111000000 !
b11111111000000 )
b11000000 +
b11000000 Q
b11000000 T
b101 -
b101 W
b101 [
b10 >
1$
#480
0$
#490
b100 Z
b11100000 S
b11111 D
1F
b10 =
1:
b1 <
b1 N
b1 7
b1 ?
b100 >
03
1$
#500
0$
#510
b11110 ,
b11110 e
b1 a
b1 n
b10001 o
0F
b1 k
b100 =
0:
b0 <
b0 N
b0 7
b0 ?
b11111 4
b11111 B
b11111 E
b11111 \
13
b1111111100000 !
b1111111100000 )
b11100000 +
b11100000 Q
b11100000 T
b100 -
b100 W
b100 [
b10 >
1$
#520
0$
#530
b11 Z
b11110000 S
b1111 D
1F
b10 =
1:
b1 <
b1 N
b1 7
b1 ?
b100 >
03
1$
#540
0$
#550
b1110 ,
b1110 e
b0 a
b0 n
b10000 o
0F
b0 k
b100 =
0:
b0 <
b0 N
b0 7
b0 ?
b1111 4
b1111 B
b1111 E
b1111 \
13
b111111110000 !
b111111110000 )
b11110000 +
b11110000 Q
b11110000 T
b11 -
b11 W
b11 [
b10 >
1$
#560
0$
#570
b10 Z
b11111000 S
b111 D
1F
b10 =
1:
b1 <
b1 N
b1 7
b1 ?
b100 >
03
1$
#580
0$
#590
b110 ,
b110 e
b110 c
b110 i
b10110 j
0d
0F
b111 f
b100 =
0:
b0 <
b0 N
b0 7
b0 ?
b111 4
b111 B
b111 E
b111 \
13
b11111111000 !
b11111111000 )
b11111000 +
b11111000 Q
b11111000 T
b10 -
b10 W
b10 [
b10 >
1$
#600
0$
#610
b1 Z
b11111100 S
b11 D
1F
b10 =
1:
b1 <
b1 N
b1 7
b1 ?
b100 >
03
1$
#620
0$
#630
b10 ,
b10 e
b10 c
b10 i
b10010 j
0F
b11 f
b100 =
0:
b0 <
b0 N
b0 7
b0 ?
b11 4
b11 B
b11 E
b11 \
13
b1111111100 !
b1111111100 )
b11111100 +
b11111100 Q
b11111100 T
b1 -
b1 W
b1 [
b10 >
1$
#640
0$
#650
b0 Z
b11111110 S
b1 D
1F
b10 =
1:
b1 <
b1 N
b1 7
b1 ?
b100 >
03
1$
#660
0$
#670
b0 ,
b0 e
b0 c
b0 i
b10000 j
0F
b1 f
b100 =
0:
b0 <
b0 N
b0 7
b0 ?
b1 4
b1 B
b1 E
b1 \
13
b111111110 !
b111111110 )
b11111110 +
b11111110 Q
b11111110 T
10
b0 -
b0 W
b0 [
b10 >
1$
#680
0$
#690
b11111111 S
b0 D
1F
b101 =
1:
b1 <
b1 N
b1 7
b1 ?
b100 >
03
1$
#700
0$
#710
0/
b1111 a
b1111 n
b1111 o
0.
b11111111 ,
b11111111 e
b1111 c
b1111 i
b1111 j
0F
b0 f
0P
b0 =
1"
0:
b0 <
b0 N
b0 7
b0 ?
b0 4
b0 B
b0 E
b0 \
13
b11111111 !
b11111111 )
b11111111 +
b11111111 Q
b11111111 T
b101 >
1$
#720
0$
#730
b111 Z
b0 c
b0 i
b0 j
1d
b0 ,
b0 e
b0 a
b0 n
b0 o
1b
b10101010 S
b10 =
1;
b11 <
b11 N
b11 8
b11 G
b11 7
b11 ?
0"
b11001001 K
b0 g
b0 l
b0 >
b0 !
b0 )
b0 +
b0 Q
b0 T
b0 2
b0 I
b0 L
b0 ]
03
1$
1&
b11001001 #
b11001001 '
b11001001 H
b10101010 %
b10101010 (
b10101010 O
b1000010101111010 r
b11001001 q
b10101010 p
#740
0$
0&
#750
b1001 c
b1001 i
b1001 j
0d
b11001001 ,
b11001001 e
b1100 a
b1100 n
b1100 o
0b
b1001 g
b1100 l
b100 =
0;
b0 <
b0 N
b0 8
b0 G
b0 7
b0 ?
b11001001 2
b11001001 I
b11001001 L
b11001001 ]
b10101010 !
b10101010 )
b10101010 +
b10101010 Q
b10101010 T
00
b111 -
b111 W
b111 [
b10 >
1$
#760
0$
#770
b110 Z
b1010101 S
b10 =
1:
b1 <
b1 N
b1 7
b1 ?
b100 >
1$
#780
0$
#790
b11 =
0:
b0 <
b0 N
b0 7
b0 ?
b1010101 !
b1010101 )
b1010101 +
b1010101 Q
b1010101 T
b110 -
b110 W
b110 [
b10 >
1$
#800
0$
#810
b11001001 D
b100 =
b11001001 6
b11001001 @
b11 7
b11 ?
b11 >
1$
#820
0$
#830
1.
b10 c
b10 i
b10010 j
1d
1/
b10010010 ,
b10010010 e
b1001 a
b1001 n
b11001 o
1b
b101 Z
b10101010 S
1U
b1100100 D
1F
b1001 f
b1100 k
1P
b10 =
1:
b1 <
b1 N
b0 6
b0 @
b1 7
b1 ?
b1100100101010101 !
b1100100101010101 )
b11001001 4
b11001001 B
b11001001 E
b11001001 \
b100 >
1$
#840
0$
#850
0.
b1101 c
b1101 i
b1101 j
0d
b101101 ,
b101101 e
b10 a
b10 n
b10010 o
0b
0U
b100 =
0:
b0 <
b0 N
b0 7
b0 ?
b1100100 D
0F
b100 f
b110 k
0P
b10 >
b101 -
b101 W
b101 [
b10101010 +
b10101010 Q
b10101010 T
1*
b110010010101010 !
b110010010101010 )
b1100100 4
b1100100 B
b1100100 E
b1100100 \
13
1$
#860
0$
#870
b100 Z
b1010101 S
b110010 D
b10 =
1:
b1 <
b1 N
b1 7
b1 ?
03
0*
b100 >
1$
#880
0$
#890
b1011 c
b1011 i
b1011 j
0/
b11111011 ,
b11111011 e
b1111 a
b1111 n
b1111 o
b11 =
0:
b0 <
b0 N
b0 7
b0 ?
b110010 D
b10 f
b11 k
b10 >
b100 -
b100 W
b100 [
b1010101 +
b1010101 Q
b1010101 T
b11001001010101 !
b11001001010101 )
b110010 4
b110010 B
b110010 E
b110010 \
1$
#900
0$
#910
b11111011 D
b100 =
b11111011 6
b11111011 @
b11 7
b11 ?
b11 >
1$
#920
0$
#930
b11 Z
b1111101 D
1F
1.
b100 c
b100 i
b10100 j
1/
b11000100 ,
b11000100 e
b1100 a
b1100 n
b11100 o
b10101010 S
1U
b10 =
1:
b1 <
b1 N
b0 6
b0 @
b1 7
b1 ?
b1011 f
b1111 k
1P
b100 >
b1111101101010101 !
b1111101101010101 )
b11111011 4
b11111011 B
b11111011 E
b11111011 \
1$
#940
0$
#950
b110 c
b110 i
b10110 j
b1000110 ,
b1000110 e
b100 a
b100 n
b10100 o
0F
b1101 f
b111 k
0U
b100 =
0:
b0 <
b0 N
b0 7
b0 ?
b1111101 4
b1111101 B
b1111101 E
b1111101 \
13
b111110110101010 !
b111110110101010 )
b10101010 +
b10101010 Q
b10101010 T
1*
b11 -
b11 W
b11 [
b10 >
1$
#960
0$
#970
b10 Z
b11010101 S
b111110 D
1F
b10 =
1:
b1 <
b1 N
b1 7
b1 ?
b100 >
0*
03
1$
#980
0$
#990
b111 c
b111 i
b10111 j
b111 ,
b111 e
b0 a
b0 n
b10000 o
0F
b1110 f
b11 k
0P
b11 =
0:
b0 <
b0 N
b0 7
b0 ?
b111110 4
b111110 B
b111110 E
b111110 \
13
b11111011010101 !
b11111011010101 )
b11010101 +
b11010101 Q
b11010101 T
b10 -
b10 W
b10 [
b10 >
1$
#1000
0$
#1010
b111 D
b100 =
b111 6
b111 @
b11 7
b11 ?
b11 >
03
1$
#1020
0$
#1030
b0 c
b0 i
b10000 j
0/
b11010000 ,
b11010000 e
b1101 a
b1101 n
b1101 o
b1 Z
b11101010 S
1U
b11 D
1F
b111 f
b0 k
1P
b10 =
1:
b1 <
b1 N
b0 6
b0 @
b1 7
b1 ?
b11111010101 !
b11111010101 )
b111 4
b111 B
b111 E
b111 \
b100 >
1$
#1040
0$
#1050
b1100 a
b1100 n
b1100 o
0.
b11001100 ,
b11001100 e
b1100 c
b1100 i
b1100 j
0U
b100 =
0:
b0 <
b0 N
b0 7
b0 ?
b11 D
0F
b11 f
b10 >
b1 -
b1 W
b1 [
b11101010 +
b11101010 Q
b11101010 T
1*
b1111101010 !
b1111101010 )
b11 4
b11 B
b11 E
b11 \
13
1$
#1060
0$
#1070
b0 Z
b11110101 S
b1 D
1F
b10 =
1:
b1 <
b1 N
b1 7
b1 ?
03
0*
b100 >
1$
#1080
0$
#1090
b11001010 ,
b11001010 e
b1010 c
b1010 i
b1010 j
b11 =
0:
b0 <
b0 N
b0 7
b0 ?
b1 D
0F
b1 f
b10 >
10
b0 -
b0 W
b0 [
b11110101 +
b11110101 Q
b11110101 T
b111110101 !
b111110101 )
b1 4
b1 B
b1 E
b1 \
13
1$
#1100
0$
#1110
b11001010 D
b100 =
b11001010 6
b11001010 @
b11 7
b11 ?
03
b11 >
1$
#1120
0$
#1130
b1100101 D
1.
b11 c
b11 i
b10011 j
1/
b10010011 ,
b10010011 e
b1001 a
b1001 n
b11001 o
1b
b1111010 S
1U
b101 =
1:
b1 <
b1 N
b0 6
b0 @
b1 7
b1 ?
b1010 f
b1100 k
0P
b100 >
b1100101011110101 !
b1100101011110101 )
b11001010 4
b11001010 B
b11001010 E
b11001010 \
1$
#1140
0$
#1150
0.
b1110 c
b1110 i
b1110 j
b101110 ,
b101110 e
b10 a
b10 n
b10010 o
0b
b101 f
b110 k
1P
0U
b0 =
1"
0:
b0 <
b0 N
b0 7
b0 ?
b1100101 4
b1100101 B
b1100101 E
b1100101 \
b110010101111010 !
b110010101111010 )
b1111010 +
b1111010 Q
b1111010 T
1*
b101 >
1$
#1160
0$
#1170
b111 Z
1d
1b
b0 c
b0 i
b0 j
0/
b0 ,
b0 e
b0 a
b0 n
b0 o
b11111111 S
b10 =
1;
b11 <
b11 N
b11 8
b11 G
b11 7
b11 ?
0"
b1 K
b0 g
b0 l
b0 D
b0 f
b0 k
0P
b0 >
0*
b0 +
b0 Q
b0 T
b0 2
b0 I
b0 L
b0 ]
b0 !
b0 )
b0 4
b0 B
b0 E
b0 \
1$
1&
b1 #
b1 '
b1 H
b11111111 %
b11111111 (
b11111111 O
b11111111 r
b1 q
b11111111 p
#1180
0$
0&
#1190
b1 ,
b1 e
b1 c
b1 i
b1 j
0d
b1 g
b11 =
0;
b0 <
b0 N
b0 8
b0 G
b0 7
b0 ?
b1 2
b1 I
b1 L
b1 ]
b11111111 !
b11111111 )
b11111111 +
b11111111 Q
b11111111 T
00
b111 -
b111 W
b111 [
b10 >
1$
#1200
0$
#1210
b1 D
b100 =
b1 6
b1 @
b11 7
b11 ?
b11 >
1$
#1220
0$
#1230
b10 ,
b10 e
b10 c
b10 i
b10 j
1d
b110 Z
1U
b0 D
1F
b1 f
1P
b10 =
1:
b1 <
b1 N
b0 6
b0 @
b1 7
b1 ?
b111111111 !
b111111111 )
b1 4
b1 B
b1 E
b1 \
b100 >
1$
#1240
0$
#1250
b1 ,
b1 e
b1 c
b1 i
b1 j
0d
0U
b11 =
0:
b0 <
b0 N
b0 7
b0 ?
b110 Z
0F
b0 f
0P
b10 >
b110 -
b110 W
b110 [
1*
b11111111 !
b11111111 )
b0 4
b0 B
b0 E
b0 \
13
1$
#1260
0$
#1270
b1 D
b100 =
b1 6
b1 @
b11 7
b11 ?
03
0*
b11 >
1$
#1280
0$
#1290
b101 Z
b0 D
1F
b10 ,
b10 e
b10 c
b10 i
b10 j
1d
1U
b10 =
1:
b1 <
b1 N
b0 6
b0 @
b1 7
b1 ?
b1 f
1P
b100 >
b111111111 !
b111111111 )
b1 4
b1 B
b1 E
b1 \
1$
#1300
0$
#1310
b1 ,
b1 e
b1 c
b1 i
b1 j
0d
0U
0F
b0 f
0P
b11 =
0:
b0 <
b0 N
b0 7
b0 ?
b11111111 !
b11111111 )
b0 4
b0 B
b0 E
b0 \
13
1*
b101 -
b101 W
b101 [
b10 >
1$
#1320
0$
#1330
b1 D
b100 =
b1 6
b1 @
b11 7
b11 ?
b11 >
0*
03
1$
#1340
0$
#1350
b10 ,
b10 e
b10 c
b10 i
b10 j
1d
b100 Z
1U
b0 D
1F
b1 f
1P
b10 =
1:
b1 <
b1 N
b0 6
b0 @
b1 7
b1 ?
b111111111 !
b111111111 )
b1 4
b1 B
b1 E
b1 \
b100 >
1$
#1360
0$
#1370
b1 ,
b1 e
b1 c
b1 i
b1 j
0d
0U
b11 =
0:
b0 <
b0 N
b0 7
b0 ?
b100 Z
0F
b0 f
0P
b10 >
b100 -
b100 W
b100 [
1*
b11111111 !
b11111111 )
b0 4
b0 B
b0 E
b0 \
13
1$
#1380
0$
#1390
b1 D
b100 =
b1 6
b1 @
b11 7
b11 ?
03
0*
b11 >
1$
#1400
0$
#1410
b11 Z
b0 D
1F
b10 ,
b10 e
b10 c
b10 i
b10 j
1d
1U
b10 =
1:
b1 <
b1 N
b0 6
b0 @
b1 7
b1 ?
b1 f
1P
b100 >
b111111111 !
b111111111 )
b1 4
b1 B
b1 E
b1 \
1$
#1420
0$
#1430
b1 ,
b1 e
b1 c
b1 i
b1 j
0d
0U
0F
b0 f
0P
b11 =
0:
b0 <
b0 N
b0 7
b0 ?
b11111111 !
b11111111 )
b0 4
b0 B
b0 E
b0 \
13
1*
b11 -
b11 W
b11 [
b10 >
1$
#1440
0$
#1450
b1 D
b100 =
b1 6
b1 @
b11 7
b11 ?
b11 >
0*
03
1$
#1460
0$
#1470
b10 ,
b10 e
b10 c
b10 i
b10 j
1d
b10 Z
1U
b0 D
1F
b1 f
1P
b10 =
1:
b1 <
b1 N
b0 6
b0 @
b1 7
b1 ?
b111111111 !
b111111111 )
b1 4
b1 B
b1 E
b1 \
b100 >
1$
#1480
0$
#1490
b1 ,
b1 e
b1 c
b1 i
b1 j
0d
0U
b11 =
0:
b0 <
b0 N
b0 7
b0 ?
b10 Z
0F
b0 f
0P
b10 >
b10 -
b10 W
b10 [
1*
b11111111 !
b11111111 )
b0 4
b0 B
b0 E
b0 \
13
1$
#1500
0$
#1510
b1 D
b100 =
b1 6
b1 @
b11 7
b11 ?
03
0*
b11 >
1$
#1520
0$
#1530
b1 Z
b0 D
1F
b10 ,
b10 e
b10 c
b10 i
b10 j
1d
1U
b10 =
1:
b1 <
b1 N
b0 6
b0 @
b1 7
b1 ?
b1 f
1P
b100 >
b111111111 !
b111111111 )
b1 4
b1 B
b1 E
b1 \
1$
#1540
0$
#1550
b1 ,
b1 e
b1 c
b1 i
b1 j
0d
0U
0F
b0 f
0P
b11 =
0:
b0 <
b0 N
b0 7
b0 ?
b11111111 !
b11111111 )
b0 4
b0 B
b0 E
b0 \
13
1*
b1 -
b1 W
b1 [
b10 >
1$
#1560
0$
#1570
b1 D
b100 =
b1 6
b1 @
b11 7
b11 ?
b11 >
0*
03
1$
#1580
0$
#1590
b10 ,
b10 e
b10 c
b10 i
b10 j
1d
b0 Z
1U
b0 D
1F
b1 f
1P
b10 =
1:
b1 <
b1 N
b0 6
b0 @
b1 7
b1 ?
b111111111 !
b111111111 )
b1 4
b1 B
b1 E
b1 \
b100 >
1$
#1600
0$
#1610
b1 ,
b1 e
b1 c
b1 i
b1 j
0d
0U
b11 =
0:
b0 <
b0 N
b0 7
b0 ?
0F
b0 f
0P
b10 >
10
b0 -
b0 W
b0 [
1*
b11111111 !
b11111111 )
b0 4
b0 B
b0 E
b0 \
13
1$
#1620
0$
#1630
b1 D
b100 =
b1 6
b1 @
b11 7
b11 ?
03
0*
b11 >
1$
#1640
0$
#1650
b0 D
1F
b10 ,
b10 e
b10 c
b10 i
b10 j
1d
1U
b101 =
1:
b1 <
b1 N
b0 6
b0 @
b1 7
b1 ?
b1 f
1P
b100 >
b111111111 !
b111111111 )
b1 4
b1 B
b1 E
b1 \
1$
#1660
0$
#1670
b1 ,
b1 e
b1 c
b1 i
b1 j
0d
0U
0F
b0 f
0P
b0 =
1"
0:
b0 <
b0 N
b0 7
b0 ?
b11111111 !
b11111111 )
b0 4
b0 B
b0 E
b0 \
13
1*
b101 >
1$
#1680
0$
#1690
b111 Z
b0 ,
b0 e
b0 c
b0 i
b0 j
1d
b1010 S
b10 =
1;
b11 <
b11 N
b11 8
b11 G
b11 7
b11 ?
0"
b11110 K
b0 g
b0 >
0*
b0 !
b0 )
b0 +
b0 Q
b0 T
b0 2
b0 I
b0 L
b0 ]
03
1$
1&
b11110 #
b11110 '
b11110 H
b1010 %
b1010 (
b1010 O
b100101100 r
b11110 q
b1010 p
#1700
0$
0&
#1710
b1110 c
b1110 i
b1110 j
0d
b11110 ,
b11110 e
b1 a
b1 n
b1 o
0b
b1110 g
b1 l
b100 =
0;
b0 <
b0 N
b0 8
b0 G
b0 7
b0 ?
b11110 2
b11110 I
b11110 L
b11110 ]
b1010 !
b1010 )
b1010 +
b1010 Q
b1010 T
00
b111 -
b111 W
b111 [
b10 >
1$
#1720
0$
#1730
b110 Z
b101 S
b10 =
1:
b1 <
b1 N
b1 7
b1 ?
b100 >
1$
#1740
0$
#1750
b11 =
0:
b0 <
b0 N
b0 7
b0 ?
b101 !
b101 )
b101 +
b101 Q
b101 T
b110 -
b110 W
b110 [
b10 >
1$
#1760
0$
#1770
b11110 D
b100 =
b11110 6
b11110 @
b11 7
b11 ?
b11 >
1$
#1780
0$
#1790
1.
b1100 c
b1100 i
b11100 j
1d
b111100 ,
b111100 e
b11 a
b11 n
b11 o
1b
b101 Z
b10 S
1U
b1111 D
b1110 f
b1 k
b10 =
1:
b1 <
b1 N
b0 6
b0 @
b1 7
b1 ?
b1111000000101 !
b1111000000101 )
b11110 4
b11110 B
b11110 E
b11110 \
b100 >
1$
#1800
0$
#1810
b1101 c
b1101 i
b11101 j
0d
b101101 ,
b101101 e
b10 a
b10 n
b10 o
0b
0U
b100 =
0:
b0 <
b0 N
b0 7
b0 ?
b1111 D
0F
b1111 f
b0 k
1P
b10 >
b101 -
b101 W
b101 [
b10 +
b10 Q
b10 T
1*
b111100000010 !
b111100000010 )
b1111 4
b1111 B
b1111 E
b1111 \
1$
#1820
0$
#1830
b100 Z
b10000001 S
b111 D
1F
b10 =
1:
b1 <
b1 N
b1 7
b1 ?
0*
b100 >
1$
#1840
0$
#1850
b100101 ,
b100101 e
b101 c
b101 i
b10101 j
b11 =
0:
b0 <
b0 N
b0 7
b0 ?
b111 D
0F
b111 f
b10 >
b100 -
b100 W
b100 [
b10000001 +
b10000001 Q
b10000001 T
b11110000001 !
b11110000001 )
b111 4
b111 B
b111 E
b111 \
13
1$
#1860
0$
#1870
b100101 D
b100 =
b100101 6
b100101 @
b11 7
b11 ?
03
b11 >
1$
#1880
0$
#1890
b11 Z
b11000000 S
1U
b10010 D
1F
b11 c
b11 i
b10011 j
b1000011 ,
b1000011 e
b100 a
b100 n
b100 o
b10 =
1:
b1 <
b1 N
b0 6
b0 @
b1 7
b1 ?
b101 f
b10 k
b100 >
b10010110000001 !
b10010110000001 )
b100101 4
b100101 B
b100101 E
b100101 \
1$
#1900
0$
#1910
b0 c
b0 i
b10000 j
b110000 ,
b110000 e
b11 a
b11 n
b11 o
1b
0F
b10 f
b1 k
0P
0U
b100 =
0:
b0 <
b0 N
b0 7
b0 ?
b10010 4
b10010 B
b10010 E
b10010 \
13
b1001011000000 !
b1001011000000 )
b11000000 +
b11000000 Q
b11000000 T
1*
b11 -
b11 W
b11 [
b10 >
1$
#1920
0$
#1930
b10 Z
b1100000 S
b1001 D
b10 =
1:
b1 <
b1 N
b1 7
b1 ?
b100 >
0*
03
1$
#1940
0$
#1950
b111 c
b111 i
b10111 j
b100111 ,
b100111 e
b10 a
b10 n
b10 o
0b
b1001 f
b0 k
1P
b100 =
0:
b0 <
b0 N
b0 7
b0 ?
b1001 4
b1001 B
b1001 E
b1001 \
b100101100000 !
b100101100000 )
b1100000 +
b1100000 Q
b1100000 T
b10 -
b10 W
b10 [
b10 >
1$
#1960
0$
#1970
b1 Z
b10110000 S
b100 D
1F
b10 =
1:
b1 <
b1 N
b1 7
b1 ?
b100 >
1$
#1980
0$
#1990
b100010 ,
b100010 e
b10 c
b10 i
b10010 j
0F
b100 f
0P
b100 =
0:
b0 <
b0 N
b0 7
b0 ?
b100 4
b100 B
b100 E
b100 \
13
b10010110000 !
b10010110000 )
b10110000 +
b10110000 Q
b10110000 T
b1 -
b1 W
b1 [
b10 >
1$
#2000
0$
#2010
b0 Z
b1011000 S
b10 D
b10 =
1:
b1 <
b1 N
b1 7
b1 ?
b100 >
03
1$
#2020
0$
#2030
b100000 ,
b100000 e
b0 c
b0 i
b10000 j
b10 f
b100 =
0:
b0 <
b0 N
b0 7
b0 ?
b10 4
b10 B
b10 E
b10 \
b1001011000 !
b1001011000 )
b1011000 +
b1011000 Q
b1011000 T
10
b0 -
b0 W
b0 [
b10 >
1$
#2040
0$
#2050
b101100 S
b1 D
b101 =
1:
b1 <
b1 N
b1 7
b1 ?
b100 >
1$
#2060
0$
#2070
b1 a
b1 n
b1 o
0.
b11111 ,
b11111 e
b1111 c
b1111 i
b1111 j
b1 f
1P
b0 =
1"
0:
b0 <
b0 N
b0 7
b0 ?
b1 4
b1 B
b1 E
b1 \
b100101100 !
b100101100 )
b101100 +
b101100 Q
b101100 T
b101 >
1$
#2080
0$
